Position,Name,Salary,Team,Oppo,GameTime,Projected,Ceiling,Floor,ISO,wOBA
P,M. Koch,6100,ARI,MIA,0.673611111,11.89202719,38.92375405,-8.381767943,3.532958962,10.60592439
P,A. Sanchez,5500,ATL,WSH,0.565972222,11.22839528,37.83653972,-8.727713054,17.95366348,12.56509829
P,A. Cobb,4000,BAL,NYY,0.545138889,2.483653664,17.17861385,-8.537566475,0.55523837,1.401718327
P,R. Porcello,8000,BOS,HOU,0.8125,15.74160991,36.67443661,0.041989891,18.36765575,17.63712495
P,J. Lester,10400,CHC,NYM,0.548611111,27.55392286,67.98845526,-2.77197644,35.32211445,30.83813119
P,D. Covey,4600,CWS,MIL,0.590277778,8.93606406,24.81545348,-2.973478002,8.344386658,8.481928318
P,L. Castillo,6800,CIN,SD,0.756944444,11.3285663,34.1120748,-5.759065074,6.978793752,9.734914447
P,M. Clevinger,11100,CLE,MIN,0.590277778,20.20975738,47.36178997,-0.154267065,26.05769945,22.03163794
P,C. Bettis,5900,COL,LAD,0.631944444,8.882078323,25.81377328,-3.816692894,9.040979708,9.170964853
P,M. Fulmer,7200,DET,TOR,0.548611111,12.72343835,38.13490864,-6.335164371,13.85502683,12.78739271
P,C. Morton,10400,HOU,BOS,0.8125,34.45198271,68.68396228,8.77799803,40.59313282,41.48451614
P,J. Junis,9000,KC,OAK,0.59375,14.28072164,34.2630803,-0.70604736,10.61534919,14.69744653
P,T. Skaggs,9500,LAA,TEX,0.671527778,22.424544,56.30562215,-2.986264612,28.44053942,25.63745388
P,A. Wood,7300,LAD,COL,0.631944444,15.06245467,39.38402406,-3.178722378,20.60142015,17.40822118
P,D. Straily,7300,MIA,ARI,0.673611111,8.846961387,26.77569817,-4.599591201,4.444807802,8.406595262
P,B. Suter,7700,MIL,CWS,0.590277778,19.43754071,53.38891993,-6.025993697,17.16840133,19.2023212
P,K. Gibson,7800,MIN,CLE,0.590277778,15.63459572,39.31573196,-2.126256467,18.42870997,16.64517295
P,S. Matz,6900,NYM,CHC,0.548611111,8.299966518,25.19141397,-4.368619069,5.720430381,7.666459243
P,D. German,8400,NYY,BAL,0.545138889,40.55932801,85.09023007,7.161151456,53.22771928,44.2303249
P,D. Gossett,5100,OAK,KC,0.59375,5.704840546,31.43407869,-13.59208806,5.805975981,4.73069231
P,J. Arrieta,9100,PHI,SF,0.670138889,19.56164637,49.36902308,-2.793886157,26.79901682,22.35878803
P,N. Kingham,8200,PIT,STL,0.59375,18.4376076,42.03924751,0.736377661,18.71558415,23.26215414
P,T. Ross,9100,SD,CIN,0.756944444,18.93523191,44.09037204,0.068876824,24.68108691,20.93880291
P,D. Rodriguez,5000,SF,PHI,0.670138889,14.78122575,14.78122575,14.78122575,14.78122575,14.78122575
P,F. Hernandez,7800,SEA,TB,0.673611111,12.58696745,39.8914526,-7.891396415,8.204185332,11.06061221
P,M. Wacha,9700,STL,PIT,0.59375,21.35156126,52.25271565,-1.824304538,29.99918344,22.8733048
P,B. Snell,11100,TB,SEA,0.673611111,25.1073442,54.31418746,3.202211761,26.12118129,30.43599049
P,D. Fister,4200,TEX,LAA,0.671527778,5.960801225,20.22856389,-4.740020775,5.743858078,5.449603115
P,A. Sanchez,5500,TOR,DET,0.548611111,9.4501388,31.84431463,-7.345493076,15.11031698,10.5751463
P,J. Hellickson,7500,WSH,ATL,0.565972222,18.47333192,47.42853364,-3.243069368,24.31527325,23.97664556
C,"Briceno, Jose",3000,LAA,TEX,0.671527778,17.43643239,23.57802878,12.8302351,114.2892836,21.55417791
OF,"Meadows, Austin",4500,PIT,STL,0.59375,14.84961143,20.87646292,10.32947282,2.510364642,9.430929489
OF,"Trout, Mike",6000,LAA,TEX,0.671527778,29.25258166,40.6366789,20.71450872,58.15675814,28.61225786
1B,"Reynolds, Mark",4100,WSH,ATL,0.565972222,18.08246554,27.66013054,10.89921678,14.14504664,9.891337167
OF,"Martinez, J.D.",4800,BOS,HOU,0.8125,15.03331478,21.64487523,10.07464445,18.45246534,10.3508305
SS,"Machado, Manny",5100,BAL,NYY,0.545138889,30.13567669,43.77129478,19.90896312,24.30401705,28.89076316
3B,"Arenado, Nolan",5400,COL,LAD,0.631944444,17.43302057,25.68247346,11.2459309,9.886518652,12.03815939
OF,"Nimmo, Brandon",4100,NYM,CHC,0.548611111,3.94453323,6.528137268,2.0068302,2.359154511,2.918944372
1B,"Freeman, Freddie",5400,ATL,WSH,0.565972222,7.02909636,10.37054852,4.523007242,8.552923087,7.37744758
2B,"Torres, Gleyber",4700,NYY,BAL,0.545138889,28.8262637,44.36153847,17.17480762,62.97076912,29.24081236
SS,"Lindor, Francisco",5200,CLE,MIN,0.590277778,14.09672086,20.30675767,9.439193248,12.02968428,10.40887452
OF,"Pollock, A.J.",4700,ARI,MIA,0.673611111,0,0,0,0,0
1B,"Aguilar, Jesus",4400,MIL,CWS,0.590277778,8.09555522,13.1848103,4.278613912,11.38435931,7.702739153
3B,"Suarez, Eugenio",4700,CIN,SD,0.756944444,10.35920706,15.21271883,6.719073233,6.379022203,5.957604372
C,"Cervelli, Francisco",3800,PIT,STL,0.59375,6.678266494,10.41409884,3.876392236,9.146421936,6.701128735
2B,"Gennett, Scooter",4500,CIN,SD,0.756944444,9.361222261,14.44425459,5.548948015,8.546163498,9.922549605
OF,"Hermosillo, Michael",3500,LAA,TEX,0.671527778,3.00193101,8.876173146,-1.403750592,7.710671304,3.792468713
OF,"Castellanos, Nicholas",4400,DET,TOR,0.548611111,13.49038053,20.810907,7.99998567,10.68302102,11.86715741
1B,"Cabrera, Miguel",4500,DET,TOR,0.548611111,14.26943776,22.18677101,8.331437817,9.801889274,13.1342689
2B,"Arroyo, Christian",3700,TB,SEA,0.673611111,6.331173979,10.90556484,2.900380836,5.989056216,7.073416016
2B,"Rondon, Jose",3500,CWS,MIL,0.590277778,6.561656929,10.82344056,3.365319203,25.90843036,7.643134616
OF,"Blackmon, Charlie",5700,COL,LAD,0.631944444,9.818197224,14.59129179,6.238376297,6.568927924,9.428894365
OF,"Slater, Austin",3200,SF,PHI,0.670138889,2.694545441,5.143819864,0.857589624,0,2.234642855
3B,"Candelario, Jeimer",4300,DET,TOR,0.548611111,13.10837979,20.24148647,7.758549775,5.927753619,10.21972513
OF,"Markakis, Nick",4300,ATL,WSH,0.565972222,6.005898946,9.12792919,3.664376263,6.485180967,6.550755739
SS,"Simmons, Andrelton",4700,LAA,TEX,0.671527778,11.41145839,17.80218867,6.618410677,14.33328121,16.13862318
2B,"Zobrist, Ben",4100,CHC,NYM,0.548611111,5.592518599,8.997181325,3.039021555,10.72033325,7.588299068
OF,"Haniger, Mitch",4000,SEA,TB,0.673611111,8.429489723,12.88900856,5.084850593,13.29403918,8.237627571
C,"Stassi, Max",3600,HOU,BOS,0.8125,5.821029064,10.11695506,2.599084566,1.229469798,3.543320961
OF,"Yelich, Christian",4800,MIL,CWS,0.590277778,10.76580189,16.09389446,6.769732463,11.25468199,11.2103352
OF,"Rosario, Eddie",4100,MIN,CLE,0.590277778,10.94450655,16.60893694,6.696183759,6.237239364,9.13927218
OF,"Soler, Jorge",4000,KC,OAK,0.59375,9.142519442,14.37134002,5.220904007,13.86003326,12.01879428
OF,"Herrera, Odubel",4500,PHI,SF,0.670138889,8.856013324,14.1882085,4.856866945,8.797976212,9.371694097
2B,"Altuve, Jose",4900,HOU,BOS,0.8125,6.908389276,10.70305099,4.062392992,0.874120094,6.258277509
OF,"Mazara, Nomar",4200,TEX,LAA,0.671527778,12.50030067,19.58754981,7.184863819,7.577926394,6.880276964
OF,"Cain, Lorenzo",4500,MIL,CWS,0.590277778,6.392385169,9.875835814,3.779797184,7.920001113,7.554243449
2B,"Holt, Brock",2800,BOS,HOU,0.8125,4.504094697,7.897607873,1.958959815,1.29261058,3.188481231
1B,"Smoak, Justin",4000,TOR,DET,0.548611111,10.55144216,16.74562776,5.905802957,9.697662391,9.091913057
2B,"Baez, Javier",4900,CHC,NYM,0.548611111,11.32457841,16.74529807,7.259038664,34.83795237,9.719434161
SS,"Segura, Jean",4500,SEA,TB,0.673611111,7.025972573,10.27250474,4.591073447,8.785847262,8.271973849
2B,"LeMahieu, DJ",4500,COL,LAD,0.631944444,12.65425175,19.4120711,7.585887242,5.740741125,8.820792339
2B,"Cano, Robinson",2900,SEA,TB,0.673611111,5.177312518,8.226407673,2.890491152,1.670563128,3.133166928
OF,"Marte, Starling",4300,PIT,STL,0.59375,5.16661933,7.795714785,3.194797739,7.31961213,6.354869458
SS,"DeJong, Paul",3700,STL,PIT,0.59375,0,0,0,0,0
1B,"Muncy, Max",4200,LAD,COL,0.631944444,10.28858089,17.89625178,4.582827717,12.31915722,7.627703728
OF,"Happ, Ian",4100,CHC,NYM,0.548611111,6.985989005,11.90730822,3.294999596,14.07043739,7.184329699
OF,"Naquin, Tyler",3100,CLE,MIN,0.590277778,0,0,0,0,0
1B,"Hosmer, Eric",3600,SD,CIN,0.756944444,12.26644178,19.53228526,6.81705918,27.92364589,15.64046105
OF,"Palka, Daniel",3800,CWS,MIL,0.590277778,12.79025112,20.65939022,6.888396791,8.458557586,9.557240269
C,"Grandal, Yasmani",4500,LAD,COL,0.631944444,11.51695369,18.62233268,6.187919448,11.16781372,9.98791514
1B,"Pearce, Steve",3500,TOR,DET,0.548611111,0,0,0,0,0
2B,"Merrifield, Whit",4400,KC,OAK,0.59375,6.147217958,9.54001458,3.602620492,9.121058637,10.74925224
3B,"Escobar, Eduardo",3800,MIN,CLE,0.590277778,10.44572933,16.31875263,6.040961853,7.6162475,7.446377499
2B,"Albies, Ozzie",5500,ATL,WSH,0.565972222,6.987426046,10.30906921,4.496193677,4.430704612,4.090142363
SS,"Correa, Carlos",4400,HOU,BOS,0.8125,7.957420117,12.33143806,4.676906656,1.451235284,5.324379484
C,"Posey, Buster",4000,SF,PHI,0.670138889,2.722444923,4.478081036,1.405717837,1.755875959,3.219807985
OF,"Choo, Shin-Soo",4000,TEX,LAA,0.671527778,6.128166326,9.772813048,3.394681284,5.308130572,4.988299413
SS,"Crawford, Brandon",3700,SF,PHI,0.670138889,4.426473589,7.411469056,2.187726988,2.581324807,4.406470857
OF,"Taylor, Chris",4400,LAD,COL,0.631944444,12.6839346,19.81713255,7.334036142,13.50800359,11.19998861
OF,"Cruz, Nelson",4100,SEA,TB,0.673611111,8.074128762,13.21376615,4.21940072,10.06050484,6.587279695
C,"Rivera, Rene",3500,LAA,TEX,0.671527778,0,0,0,0,0
1B,"Cron, C.J.",4400,TB,SEA,0.673611111,8.498881811,13.47700747,4.765287571,11.68271559,8.919068034
OF,"Hernandez, Teoscar",4000,TOR,DET,0.548611111,13.53726408,20.7735581,8.110043574,4.989385661,9.339628212
1B,"Olson, Matt",3900,OAK,KC,0.59375,14.51796442,24.02794765,7.385477006,18.50748317,12.63073732
OF,"Jankowski, Travis",3300,SD,CIN,0.756944444,8.382222308,13.90415328,4.240774077,11.32025626,13.57700469
OF,"Hoskins, Rhys",4400,PHI,SF,0.670138889,0,0,0,0,0
C,"Diaz, Elias",3400,PIT,STL,0.59375,1.999742287,3.850628012,0.611577992,3.325281635,2.595969334
OF,"Stanton, Giancarlo",5100,NYY,BAL,0.545138889,16.13072687,25.12153397,9.387621551,52.22146613,19.56841103
OF,"Pederson, Joc",4100,LAD,COL,0.631944444,7.394892978,13.88407848,2.528003855,7.207603567,6.57097507
2B,"Torreyes, Ronald",2700,NYY,BAL,0.545138889,9.219830148,18.46831853,2.283463864,12.29085852,13.96861512
3B,"Frazier, Todd",3700,NYM,CHC,0.548611111,0,0,0,0,0
2B,"Petit, Gregorio",2800,MIN,CLE,0.590277778,4.054587138,8.040089502,1.065460366,0,3.616331512
3B,"Munoz, Yairo",3600,STL,PIT,0.59375,1.883124854,3.715634847,0.50874236,3.37241511,2.640598354
OF,"Dahl, David",4400,COL,LAD,0.631944444,0,0,0,0,0
3B,"Goodrum, Niko",3900,DET,TOR,0.548611111,9.200197644,16.06651207,4.050461828,3.699839426,6.700238544
3B,"Anderson, Brian",3800,MIA,ARI,0.673611111,5.726484169,9.645665563,2.787098124,13.55654992,9.959078523
OF,"Gardner, Brett",4500,NYY,BAL,0.545138889,16.40417089,25.58899665,9.515551575,40.3963696,28.0112115
C,"Sanchez, Gary",4700,NYY,BAL,0.545138889,22.20444411,35.04297386,12.5755468,58.69406583,20.27335104
3B,"Gyorko, Jedd",3500,STL,PIT,0.59375,2.28935865,4.356988862,0.738635991,3.682805398,2.437435775
1B,"Rizzo, Anthony",4700,CHC,NYM,0.548611111,6.608105507,10.25917771,3.869801356,8.33162483,6.94654092
OF,"Jones, Adam",3600,BAL,NYY,0.545138889,16.97118663,27.64909853,8.962752703,10.88808694,15.83451678
1B,"Hicks, John",3300,DET,TOR,0.548611111,9.426147543,15.60317322,4.793378283,7.843208165,8.31301132
1B,"Austin, Tyler",3500,NYY,BAL,0.545138889,22.15432484,35.21435716,12.35930059,59.94008901,19.7528382
OF,"Field, Johnny",3800,TB,SEA,0.673611111,6.296087672,11.15279259,2.653558987,9.784288935,5.868146164
OF,"Conforto, Michael",3800,NYM,CHC,0.548611111,3.894502172,6.597745047,1.867070015,1.24447734,2.754374808
3B,"Duffy, Matt",3200,TB,SEA,0.673611111,6.014773296,10.32895307,2.779138467,3.881653978,8.731241469
OF,"Martin, Leonys",3900,DET,TOR,0.548611111,9.408546361,15.20554638,5.060796347,0,7.48649918
3B,"Bautista, Jose",3300,NYM,CHC,0.548611111,4.53770416,8.79985242,1.341092966,4.490102271,3.818212991
3B,"Donaldson, Josh",4300,TOR,DET,0.548611111,0,0,0,0,0
SS,"Turner, Trea",4800,WSH,ATL,0.565972222,6.697347235,10.36794503,3.944398886,4.534149446,6.760910081
OF,"Pinder, Chad",3700,OAK,KC,0.59375,6.998900025,12.97515997,2.516705069,10.21528509,5.30633219
OF,"Goodwin, Brian",3400,WSH,ATL,0.565972222,4.690620098,9.03842758,1.429764487,0,4.507875472
2B,"Moncada, Yoan",3700,CWS,MIL,0.590277778,3.990698947,6.339671463,2.22896956,10.35750937,5.151690987
1B,"Trumbo, Mark",3400,BAL,NYY,0.545138889,10.94021265,19.28100732,4.684616644,6.384460505,14.0576163
OF,"Cordero, Franchy",3500,SD,CIN,0.756944444,0,0,0,0,0
2B,"Carpenter, Matt",4000,STL,PIT,0.59375,7.975388913,13.55613374,3.78983029,3.814430154,4.688329602
2B,"Drury, Brandon",3300,NYY,BAL,0.545138889,11.97746053,22.20484159,4.306924734,25.90048396,14.3187415
OF,"Heyward, Jason",3300,CHC,NYM,0.548611111,1.657220883,2.872398569,0.745837618,4.521576241,3.329191152
OF,"Jay, Jon",3400,KC,OAK,0.59375,6.164794965,10.47681925,2.930776753,3.501510685,8.752387747
C,"Mesoraco, Devin",3500,NYM,CHC,0.548611111,1.819049844,3.518450407,0.544499421,5.319639646,2.900465941
C,"Wieters, Matt",2900,WSH,ATL,0.565972222,0,0,0,0,0
1B,"Bird, Greg",4100,NYY,BAL,0.545138889,12.85188225,21.47434003,6.385038913,71.97412107,20.7427528
OF,"Polanco, Gregory",3800,PIT,STL,0.59375,7.371029552,11.75293942,4.084597155,0.860956276,4.535046963
3B,"Flaherty, Ryan",3000,ATL,WSH,0.565972222,2.702060483,5.179608081,0.843899785,2.139151448,3.249612702
1B,"Osuna, Jose",3000,PIT,STL,0.59375,2.220308909,4.781423205,0.299473187,4.095772644,2.466712258
OF,"Cuevas, Noel",3200,COL,LAD,0.631944444,2.070045746,5.310613207,-0.360379851,0.860328749,2.23933003
1B,"Sano, Miguel",4000,MIN,CLE,0.590277778,10.37128264,16.05381134,6.109386109,8.740862405,7.126249852
OF,"Upton, Justin",4600,LAA,TEX,0.671527778,12.15810706,19.37460771,6.74573156,18.60774371,13.72462728
C,"Iannetta, Chris",3700,COL,LAD,0.631944444,3.618229632,6.387940094,1.540946785,3.704023253,3.520514288
OF,"Canha, Mark",3500,OAK,KC,0.59375,5.855806591,10.2476075,2.561955905,12.88096903,5.725812544
OF,"Rickard, Joey",2900,BAL,NYY,0.545138889,9.947929043,18.58081794,3.473262371,7.977188578,10.95852442
3B,"Sanchez, Yolmer",3300,CWS,MIL,0.590277778,3.242413149,5.447499062,1.588598714,9.883396627,5.770069132
1B,"Gonzalez, Adrian",3300,NYM,CHC,0.548611111,1.585990317,2.858314634,0.631747079,0.983137524,2.392116853
1B,"Flores, Wilmer",3000,NYM,CHC,0.548611111,0,0,0,0,0
OF,"Tucker, Preston",3400,ATL,WSH,0.565972222,2.59090793,5.632874015,0.309433367,2.871301497,2.529911433
SS,"Profar, Jurickson",3600,TEX,LAA,0.671527778,10.2806273,17.30814331,5.009990287,4.883262079,7.120682763
2B,"Castro, Starlin",3600,MIA,ARI,0.673611111,6.181556319,10.2978752,3.094317154,14.19590834,9.393077971
OF,"Williams, Nick",3200,PHI,SF,0.670138889,5.406411078,11.20333142,1.058720822,5.376319852,4.530872922
OF,"Reyes, Franmil",3100,SD,CIN,0.756944444,5.795560294,10.43500918,2.315973632,9.292236856,5.199016421
OF,"Gordon, Alex",3200,KC,OAK,0.59375,6.955013245,12.46448909,2.822906361,5.490538307,8.08818018
2B,"Cozart, Zack",3900,LAA,TEX,0.671527778,8.936696912,15.09743708,4.316141787,14.27036428,11.15268333
1B,"Bellinger, Cody",4600,LAD,COL,0.631944444,8.471112001,14.1405027,4.219068977,9.707272147,7.297477434
SS,"Swanson, Dansby",3300,ATL,WSH,0.565972222,3.294633221,5.549993314,1.603113151,0.447925608,1.462912455
SS,"Semien, Marcus",4000,OAK,KC,0.59375,7.465042012,11.99642637,4.066503744,9.039084643,8.32783042
3B,"Turner, Justin",4500,LAD,COL,0.631944444,6.812987107,11.75787195,3.104323476,5.280841491,7.231826558
1B,"Vogelbach, Dan",2700,SEA,TB,0.673611111,1.353942403,2.811125136,0.261055354,3.533022306,1.59864174
2B,"Pirela, Jose",3200,SD,CIN,0.756944444,4.772156371,8.197796612,2.20292619,3.37288911,6.5723431
C,"McCann, James",3100,DET,TOR,0.548611111,5.43938137,9.556580929,2.3514817,4.737391824,6.505891876
OF,"Winker, Jesse",3200,CIN,SD,0.756944444,3.296426717,6.417644895,0.955513083,1.723167204,4.703182539
1B,"Braun, Ryan",4200,MIL,CWS,0.590277778,4.980008017,8.331554291,2.466348312,7.508815487,5.075622037
C,"Plawecki, Kevin",2800,NYM,CHC,0.548611111,3.402444604,6.541204537,1.048374655,0.741363323,3.401680665
OF,"Gonzalez, Carlos",4000,COL,LAD,0.631944444,3.217995081,5.649955698,1.394024618,3.041726129,4.359490679
1B,"Gurriel, Yulieski",3100,HOU,BOS,0.8125,3.542629105,5.958635687,1.730624169,0.465661686,3.682020019
2B,"Barnes, Austin",3600,LAD,COL,0.631944444,1.960628848,4.884740219,-0.23245468,1.574378534,3.383559347
OF,"Ozuna, Marcell",3400,STL,PIT,0.59375,3.212243444,5.506003934,1.491923077,2.763738429,3.254757676
OF,"Verdugo, Alex",3600,LAD,COL,0.631944444,5.997999128,11.39203001,1.952475967,4.510309468,5.518366664
C,"Greiner, Grayson",2800,DET,TOR,0.548611111,7.55088888,13.85520426,2.822652344,2.75588659,6.80561386
OF,"Joyce, Matt",3300,OAK,KC,0.59375,8.11652858,15.24748956,2.768307845,11.15516447,7.949989358
1B,"Mancini, Trey",3400,BAL,NYY,0.545138889,9.73060565,16.9191388,4.339205784,6.832816077,11.72860844
1B,"Davis, J.D.",3400,HOU,BOS,0.8125,2.776351151,5.673856587,0.603222074,0.264445781,2.630086133
C,"McCann, Brian",3200,HOU,BOS,0.8125,0,0,0,0,0
OF,"Gordon, Dee",3900,SEA,TB,0.673611111,3.412126352,5.3945524,1.925306817,0.934664618,2.35416568
SS,"Diaz, Aledmys",3200,TOR,DET,0.548611111,9.963679184,17.99886346,3.93729098,2.683894123,6.526751951
1B,"Pujols, Albert",3700,LAA,TEX,0.671527778,9.190561647,15.54141562,4.42742117,13.53770176,11.12615639
OF,"Fowler, Dustin",3800,OAK,KC,0.59375,12.23796404,21.18883552,5.524810423,17.1950894,9.806031828
OF,"Parra, Gerardo",3600,COL,LAD,0.631944444,3.372652805,6.203030342,1.249869653,1.656622057,3.693096176
2B,"Blandino, Alex",2800,CIN,SD,0.756944444,1.765993114,4.422587628,-0.226452772,0.469988416,1.482280922
1B,"Martinez, Victor",3000,DET,TOR,0.548611111,5.13232207,9.460729329,1.886016625,1.696591791,5.318392076
C,"Maldonado, Martin",3000,LAA,TEX,0.671527778,5.789579606,11.00909095,1.874946098,7.899552865,8.394433318
1B,"Valbuena, Luis",3300,LAA,TEX,0.671527778,5.307512889,10.52216739,1.396522011,4.486053014,4.938918467
SS,"Rosario, Amed",3200,NYM,CHC,0.548611111,3.698135812,6.793390331,1.376694922,3.268470842,3.344589596
SS,"Moroff, Max",2900,PIT,STL,0.59375,2.056959542,4.6330248,0.124910598,1.677416281,1.762271227
C,"Martin, Russell",3100,TOR,DET,0.548611111,6.153487732,11.49502016,2.147338409,1.725310856,4.732545568
1B,"Walker, Christian",3200,ARI,MIA,0.673611111,1.785943721,6.756286794,-1.941813583,2.628532528,1.251965972
2B,"Goins, Ryan",2600,KC,OAK,0.59375,4.101904812,8.917921303,0.489892443,3.200940802,5.214188445
C,"d'Arnaud, Travis",3000,NYM,CHC,0.548611111,0,0,0,0,0
OF,"Zimmer, Bradley",3400,CLE,MIN,0.590277778,2.766512663,5.202619402,0.939432608,2.310479412,3.340416742
2B,"Schoop, Jonathan",3400,BAL,NYY,0.545138889,11.68755092,20.06419658,5.405066684,7.545998832,11.12044835
1B,"Gonzalez, Marwin",3000,HOU,BOS,0.8125,3.962000001,7.161933565,1.562049828,2.481015312,3.667730389
2B,"Rodriguez, Sean",2800,PIT,STL,0.59375,1.22515449,2.761878278,0.072611648,2.516258615,1.389875334
SS,"Hechavarria, Adeiny",2800,TB,SEA,0.673611111,0,0,0,0,0
OF,"Gomez, Carlos",3600,TB,SEA,0.673611111,5.50690748,9.768889114,2.310421254,7.541594126,5.848817619
OF,"Jackson, Austin",3400,SF,PHI,0.670138889,1.486244664,3.024837123,0.332300319,0.423951561,1.551013438
C,"Garver, Mitch",2700,MIN,CLE,0.590277778,3.793593809,7.766973797,0.813558817,2.16394265,3.501613462
2B,"Nunez, Eduardo",3000,BOS,HOU,0.8125,4.145423622,7.358038544,1.735962429,3.911457982,3.860429999
OF,"Stevenson, Andrew",2900,WSH,ATL,0.565972222,1.691043906,4.112315008,-0.12490942,0,2.42425674
2B,"Utley, Chase",3100,LAD,COL,0.631944444,0,0,0,0,0
1B,"Desmond, Ian",3800,COL,LAD,0.631944444,7.256451041,12.49937177,3.324260493,4.537479476,4.927692383
C,"Freitas, David",2600,SEA,TB,0.673611111,2.338550392,5.568756205,-0.084103968,1.697223184,2.237619801
2B,"Torres, Ramon",2900,KC,OAK,0.59375,6.107089612,11.62269678,1.970384232,2.838593137,6.996068127
SS,"Escobar, Alcides",2700,KC,OAK,0.59375,3.112315758,5.847032377,1.061278293,3.976252312,5.331707003
C,"Severino, Pedro",2700,WSH,ATL,0.565972222,2.099358782,4.393676952,0.378620154,1.08602047,2.581337033
OF,"Fisher, Derek",3400,HOU,BOS,0.8125,3.53218087,7.435341125,0.604810679,7.845176083,2.503321584
C,"Pena, Francisco",2900,STL,PIT,0.59375,1.912814611,4.181321347,0.211434559,2.131494447,1.897603345
3B,"Kingery, Scott",3100,PHI,SF,0.670138889,4.234517386,8.136845375,1.307771395,3.815904687,4.686209246
1B,"Cuthbert, Cheslor",2700,KC,OAK,0.59375,0,0,0,0,0
OF,"Hamilton, Billy",3000,CIN,SD,0.756944444,2.724403362,5.017812411,1.004346574,1.643320026,3.439742438
2B,"Wong, Kolten",2800,STL,PIT,0.59375,3.411198661,7.711372042,0.186068626,1.364986962,2.119914638
1B,"Morales, Kendrys",3300,TOR,DET,0.548611111,4.807113145,9.173223603,1.532530301,4.242954727,4.526939836
2B,"Kipnis, Jason",3600,CLE,MIN,0.590277778,3.21649909,5.85179147,1.240029805,2.299305218,3.252300969
2B,"Peterson, Jace",2700,BAL,NYY,0.545138889,4.629358084,9.460731886,1.005827733,1.927886616,4.023863791
OF,"Engel, Adam",2800,CWS,MIL,0.590277778,2.732815856,5.42910085,0.71060211,3.671998041,3.721682561
OF,"Guyer, Brandon",2800,CLE,MIN,0.590277778,0,0,0,0,0
SS,"Crawford, J.P.",3000,PHI,SF,0.670138889,0,0,0,0,0
2B,"Travis, Devon",3100,TOR,DET,0.548611111,2.895664066,5.955464301,0.60081389,1.261994566,2.983281423
2B,"Tomlinson, Kelby",3200,SF,PHI,0.670138889,0.867684592,2.311571096,-0.215230286,0.300665231,0.984265018
OF,"Garcia, Avisail",2800,CWS,MIL,0.590277778,0,0,0,0,0
OF,"Blash, Jabari",3500,LAA,TEX,0.671527778,4.359108098,10.50070449,-0.247089194,0,5.388544477
SS,"Adames, Willy",3500,TB,SEA,0.673611111,6.168836185,10.74322704,2.738043041,11.30909045,6.892046375
OF,"Santander, Anthony",2800,BAL,NYY,0.545138889,4.529047692,10.05592077,0.383892881,2.589756958,4.383702384
2B,"Asuaje, Carlos",2700,SD,CIN,0.756944444,3.661800955,8.692267131,-0.111048677,6.402768242,4.80673784
2B,"Riddle, J.T.",2800,MIA,ARI,0.673611111,4.317645753,9.550488442,0.393013736,3.815434628,3.83680721
C,"Butera, Drew",2500,KC,OAK,0.59375,2.126150876,4.718460567,0.181918608,2.773124517,3.808838208
2B,"Valera, Breyvic",2900,LAD,COL,0.631944444,3.265402855,8.945233449,-0.994470091,0,3.091214971
2B,"Gomez, Miguel",3500,SF,PHI,0.670138889,1.345909324,4.190309483,-0.787390795,0,1.128635377
C,"Gallagher, Cam",2300,KC,OAK,0.59375,3.943972462,9.053588211,0.11176065,2.406818766,4.974113117
C,"Castro, Jason",2600,MIN,CLE,0.590277778,0,0,0,0,0
2B,"Robinson, Drew",2700,TEX,LAA,0.671527778,4.062083077,8.741359082,0.552626072,1.021622561,2.807115338
SS,"Arcia, Orlando",2700,MIL,CWS,0.590277778,2.103251295,4.640133558,0.200589598,1.698505661,2.593418873
C,"Joseph, Caleb",2500,BAL,NYY,0.545138889,6.083801437,14.15112964,0.033305283,3.888243418,5.031559093
OF,"Kiermaier, Kevin",2900,TB,SEA,0.673611111,0,0,0,0,0
3B,"Spangenberg, Cory",2900,SD,CIN,0.756944444,3.456860585,8.077505713,-0.00862326,9.227040231,4.221277216
OF,"Reyes, Victor",2900,DET,TOR,0.548611111,1.794804006,4.782320756,-0.445833557,0.942547876,1.511184964
C,"Vazquez, Christian",2600,BOS,HOU,0.8125,1.370157151,3.074730934,0.091726814,1.093589007,1.709729052
1B,"Davis, Chris",2800,BAL,NYY,0.545138889,2.753981645,5.971940432,0.340512555,1.876446731,2.668652234
2B,"Kozma, Pete",2700,DET,TOR,0.548611111,4.083146847,9.409805627,0.088152762,2.863258795,3.581265249
OF,"Brinson, Lewis",2800,MIA,ARI,0.673611111,2.695106591,5.763523532,0.393793885,9.071815183,3.449657605
3B,"Marrero, Deven",2900,ARI,MIA,0.673611111,0.549661609,1.560937483,-0.208795296,0.779316342,0.787585339
OF,"Powell, Boog",3100,OAK,KC,0.59375,0,0,0,0,0
C,"Sucre, Jesus",2500,TB,SEA,0.673611111,1.219018056,2.902830055,-0.043840943,0.388556539,2.783764897
C,"Holaday, Bryan",2700,MIA,ARI,0.673611111,1.115298659,2.948548276,-0.259638554,4.10025545,2.212382623
OF,"Rua, Ryan",2800,TEX,LAA,0.671527778,3.121126291,7.344608124,-0.046485084,1.279191966,2.979556859
OF,"Mahtook, Mikie",2700,DET,TOR,0.548611111,3.350069178,7.104574951,0.534189848,1.919746849,3.605334957
C,"Knapp, Andrew",2700,PHI,SF,0.670138889,1.359803768,3.461572253,-0.216522596,0.592832078,2.048880753
OF,"Orlando, Paulo",2400,KC,OAK,0.59375,0.94902323,2.131483327,0.062178157,1.296517757,2.446448562
C,"Perez, Carlos",2600,TEX,LAA,0.671527778,1.943570762,5.976753328,-1.081316163,0.778545975,1.96164042
OF,"Alford, Anthony",3500,TOR,DET,0.548611111,3.396845352,8.714460455,-0.591365975,0,2.870227207
C,"Swihart, Blake",2700,BOS,HOU,0.8125,0.597286585,1.941387069,-0.410788779,0.135651361,0.723157145
OF,"Grichuk, Randal",2800,TOR,DET,0.548611111,2.653554168,6.477145146,-0.214139066,0.804440639,1.623481052
3B,"Reyes, Jose",3000,NYM,CHC,0.548611111,0.71442762,2.413271676,-0.559705422,0.306231745,0.867700298
2B,"Castro, Daniel",3200,COL,LAD,0.631944444,2.644913604,7.028970666,-0.643129192,0.930136126,2.081877137
2B,"Sogard, Eric",2800,MIL,CWS,0.590277778,0.755839494,2.557181076,-0.595166692,0.548388543,1.028774868
C,"Marjama, Mike",2900,SEA,TB,0.673611111,1.470156809,4.757967049,-0.995700871,1.419019814,1.451162253
OF,"Calhoun, Kole",2900,LAA,TEX,0.671527778,0,0,0,0,0
1B,"Valaika, Pat",2900,COL,LAD,0.631944444,0.728810214,3.118286274,-1.063296831,0.286470301,0.631513764
OF,"Pence, Hunter",2800,SF,PHI,0.670138889,0.495293496,1.214264268,-0.043934583,0.102796857,0.839581187
2B,"Sanchez, Adrian",2600,WSH,ATL,0.565972222,1.136027053,5.048510187,-1.798335298,0.285388902,1.023900839
OF,"Bourjos, Peter",2200,ATL,WSH,0.565972222,0.365826238,1.702091752,-0.636372897,0.020434073,0.18456742
2B,"Wade, Tyler",3600,NYY,BAL,0.545138889,1.899024731,5.896983895,-1.099444642,4.860215782,3.462552664
OF,"Phillips, Brett",3600,MIL,CWS,0.590277778,0.608268502,4.893250147,-2.605467731,0,0.62647783
C,"Kelly, Carson",2500,STL,PIT,0.59375,0.690522219,3.9334706,-1.741689067,0,0.548893529
C,"Susac, Andrew",2800,BAL,NYY,0.545138889,2.539599235,10.79668363,-3.653214061,0.421399643,2.859117837
2B,"Valentin, Jesmuel",2000,PHI,SF,0.670138889,0.449442181,5.374518822,-3.2443653,0,0.439770773
C,"Kratz, Erik",2900,MIL,CWS,0.590277778,11.4463609,15.28610054,8.566556164,40.71463479,11.74946295
OF,"Betts, Mookie",5500,BOS,HOU,0.8125,0,0,0,0,0
C,"Romine, Austin",3200,NYY,BAL,0.545138889,26.21979602,41.23661118,14.95718465,55.48170546,32.3268834
OF,"Eaton, Adam",4200,WSH,ATL,0.565972222,0,0,0,0,0
P,"Ramirez, Jose",4000,ATL,WSH,0.565972222,0,0,0,0,0
2B,"Gonzalez, Erik",3800,CLE,MIN,0.590277778,3.88543803,8.447302453,0.464039713,3.7591068,4.283587857
OF,"Judge, Aaron",5600,NYY,BAL,0.545138889,38.9583007,56.1893699,26.0349988,85.63718107,38.87635052
OF,"Soto, Juan",3800,WSH,ATL,0.565972222,5.533486657,8.720608985,3.143144911,6.729323953,7.327446128
OF,"Kemp, Matt",4600,LAD,COL,0.631944444,11.59710358,19.03612973,6.017833971,12.5426164,11.05391033
SS,"Andrus, Elvis",3800,TEX,LAA,0.671527778,0,0,0,0,0
1B,"Moreland, Mitch",3800,BOS,HOU,0.8125,10.51427661,16.58083229,5.964359846,3.840586094,5.210588407
1B,"Belt, Brandon",4600,SF,PHI,0.670138889,0,0,0,0,0
1B,"Thames, Eric",4900,MIL,CWS,0.590277778,0,0,0,0,0
2B,"Hanson, Alen",4000,SF,PHI,0.670138889,10.48690304,15.65302735,6.612309799,6.660211188,6.486536233
1B,"Skole, Matt",3200,CWS,MIL,0.590277778,6.286987014,10.82945197,2.880138298,7.865350447,5.346535301
C,"Ryan Murphy, John",3800,ARI,MIA,0.673611111,8.610595486,15.35035368,3.555776839,13.71977156,4.479697643
OF,"Smith Jr., Dwight",3100,TOR,DET,0.548611111,6.603439953,13.6516678,1.317269064,2.239263743,5.252060196
3B,"Saladino, Tyler",3400,MIL,CWS,0.590277778,0,0,0,0,0
3B,"Bryant, Kris",5000,CHC,NYM,0.548611111,20.77045498,31.39635457,12.80103029,24.33854388,17.81812543
OF,"Brantley, Michael",4900,CLE,MIN,0.590277778,12.13530977,17.983825,7.748923344,8.403993339,9.69358419
OF,"Ohtani, Shohei",5100,LAA,TEX,0.671527778,14.37602645,24.72317599,6.61566429,21.38265536,14.63336232
C,"Realmuto, J.T.",4300,MIA,ARI,0.673611111,11.94238132,18.66560634,6.89996255,33.4273816,14.8385667
OF,"Benintendi, Andrew",4500,BOS,HOU,0.8125,10.92493813,15.89309979,7.198816888,3.522733356,6.345392523
1B,"Adams, Matt",3900,WSH,ATL,0.565972222,11.9418757,20.16525932,5.774337987,0,7.570530976
1B,"Davidson, Matt",3800,CWS,MIL,0.590277778,0,0,0,0,0
OF,"Schwarber, Kyle",4300,CHC,NYM,0.548611111,6.166224461,9.540074147,3.635837196,13.07067404,9.071942756
C,"Flowers, Tyler",3500,ATL,WSH,0.565972222,3.042328075,5.038431852,1.545250242,0.538061725,1.376695016
OF,"Harper, Bryce",5500,WSH,ATL,0.565972222,17.81852207,26.30588157,11.45300244,0,10.99968745
1B,"Abreu, Jose",4300,CWS,MIL,0.590277778,11.26007837,17.5499488,6.542675552,18.85976437,11.28492139
2B,"Robertson, Daniel",3900,TB,SEA,0.673611111,6.182304201,10.50289838,2.941858565,8.111689163,8.334297764
2B,"Descalso, Daniel",3600,ARI,MIA,0.673611111,10.95749759,18.89798581,5.002131433,30.70640852,13.15850494
1B,"Votto, Joey",4500,CIN,SD,0.756944444,6.704513793,10.98142059,3.496833697,4.351371829,8.790735089
2B,"Lowrie, Jed",4600,OAK,KC,0.59375,14.57333008,22.84337629,8.370795417,17.31254283,13.02152741
OF,"Springer, George",4600,HOU,BOS,0.8125,7.21186039,10.88370168,4.457979422,1.544508816,5.697296098
OF,"Heredia, Guillermo",2900,SEA,TB,0.673611111,2.481082449,5.077142426,0.534037466,3.470074194,3.160676232
2B,"La Stella, Tommy",2600,CHC,NYM,0.548611111,2.778342515,7.06422353,-0.436068247,0.5328817,2.76937549
3B,"Villanueva, Christian",4300,SD,CIN,0.756944444,7.221520053,11.5893527,3.945645565,14.71002893,6.881051145
3B,"Shaw, Travis",4700,MIL,CWS,0.590277778,12.26296131,19.26234417,7.013424162,14.01116692,9.72029812
2B,"Cabrera, Asdrubal",4200,NYM,CHC,0.548611111,5.713100817,8.942195326,3.291279935,4.969381561,5.013801182
SS,"Bogaerts, Xander",4100,BOS,HOU,0.8125,8.21814081,12.73348436,4.831633151,9.948164652,6.421996629
OF,"Bader, Harrison",4000,STL,PIT,0.59375,3.192944423,6.099512887,1.013018075,4.579469789,2.786842545
OF,"Pham, Tommy",4500,STL,PIT,0.59375,6.729829436,10.384919,3.988512267,7.920531247,5.228479934
3B,"Motter, Taylor",3400,MIN,CLE,0.590277778,2.94238349,6.754390081,0.083378547,3.042515549,2.682059072
C,"Ellis, A.J.",3000,SD,CIN,0.756944444,4.253824244,7.959334945,1.474691219,3.650135822,5.908365371
C,"Contreras, Willson",4000,CHC,NYM,0.548611111,7.271733148,11.93297829,3.775799295,15.95585511,8.734101082
OF,"Adams, Lane",2900,CHC,NYM,0.548611111,2.78507521,7.144990502,-0.48486126,6.249392687,3.173388918
3B,"Bregman, Alex",3800,HOU,BOS,0.8125,6.533498583,10.39392473,3.638178975,1.049344397,5.378203012
OF,"Dickerson, Corey",3800,PIT,STL,0.59375,7.086929934,11.22811413,3.981041786,0.7285447,4.92699085
C,"Maile, Luke",3400,TOR,DET,0.548611111,6.263423197,10.44501818,3.127226963,2.842500494,6.559262525
2B,"Dixon, Brandon",2900,CIN,SD,0.756944444,1.606606978,5.379218024,-1.222851306,0.378638868,1.075969993
3B,"Valencia, Danny",3100,BAL,NYY,0.545138889,13.83197019,23.93686854,6.253296423,10.06825868,15.00112116
C,"Ramos, Wilson",3900,TB,SEA,0.673611111,7.43350707,12.12907214,3.911833268,8.762086601,8.938256417
3B,"Moustakas, Mike",4600,KC,OAK,0.59375,14.99187382,23.2836542,8.773038527,17.63640772,13.06245967
3B,"Andujar, Miguel",4100,NYY,BAL,0.545138889,22.385665,35.67149916,12.42128938,47.54364427,24.5902533
1B,"Martinez, Jose",3700,STL,PIT,0.59375,5.232215798,8.52094951,2.765665514,5.150582411,4.556851943
1B,"Bour, Justin",3600,MIA,ARI,0.673611111,10.33175861,17.55840512,4.91177373,11.91184805,7.703363639
OF,"Hernandez, Gorkys",3900,SF,PHI,0.670138889,3.081663138,5.838355094,1.014144172,1.776049334,2.465315666
SS,"Florimon, Pedro",2900,PHI,SF,0.670138889,0,0,0,0,0
SS,"Story, Trevor",4600,COL,LAD,0.631944444,15.38736122,23.70354321,9.150224724,7.771063854,9.243027744
2B,"Hernandez, Cesar",4900,PHI,SF,0.670138889,9.919689144,15.28768534,5.893691998,8.816681321,9.753487493
OF,"Renfroe, Hunter",3700,SD,CIN,0.756944444,8.102765689,14.12563639,3.585612664,8.71231906,7.800338842
3B,"Camargo, Johan",3300,ATL,WSH,0.565972222,4.915349354,8.645127593,2.118015674,2.38242279,3.111475889
OF,"Williamson, Mac",4200,SF,PHI,0.670138889,4.77306533,7.658303945,2.609136369,3.70284343,3.370949374
1B,"Mauer, Joe",3400,MIN,CLE,0.590277778,0,0,0,0,0
2B,"Kendrick, Howie",3100,WSH,ATL,0.565972222,0,0,0,0,0
1B,"Encarnacion, Edwin",4800,CLE,MIN,0.590277778,9.385420257,14.84262384,5.292517565,8.934277572,7.596742922
3B,"Rendon, Anthony",4100,WSH,ATL,0.565972222,7.253507754,11.89320724,3.773733143,6.030406365,5.967930497
C,"Suzuki, Kurt",3400,ATL,WSH,0.565972222,3.862221035,6.561017399,1.838123762,0.588936266,1.522145257
OF,"Hicks, Aaron",4200,NYY,BAL,0.545138889,18.82419782,29.36088948,10.92167908,49.0433268,26.50916261
OF,"Davis, Khris",5000,OAK,KC,0.59375,15.0798566,23.67458938,8.63380701,20.8994947,10.73823078
2B,"Solarte, Yangervis",3700,TOR,DET,0.548611111,9.580076133,15.19127214,5.37167913,11.11535213,8.874166064
OF,"Granderson, Curtis",3600,TOR,DET,0.548611111,6.284432074,11.49278912,2.37816429,10.06970996,7.011968689
3B,"Moran, Colin",3200,PIT,STL,0.59375,5.086351007,9.003575787,2.148432422,0.468929324,3.727511528
OF,"Schebler, Scott",3300,CIN,SD,0.756944444,6.938450979,11.75349619,3.327167068,5.587668616,6.634901633
OF,"Kepler, Max",3600,MIN,CLE,0.590277778,6.236401405,10.35509017,3.147384832,4.688901858,5.469320286
OF,"Acuna, Ronald",4000,ATL,WSH,0.565972222,0,0,0,0,0
2B,"Panik, Joe",3100,SF,PHI,0.670138889,4.622895545,7.815664901,2.228318527,1.953334813,5.102107322
OF,"Peralta, David",3800,ARI,MIA,0.673611111,10.97806671,17.75489832,5.895442999,25.13592642,13.80859895
C,"Castillo, Welington",3000,CWS,MIL,0.590277778,6.161663655,10.68742711,2.767341064,12.85036908,7.144785625
OF,"Cespedes, Yoenis",4000,NYM,CHC,0.548611111,0,0,0,0,0
SS,"Gregorius, Didi",4300,NYY,BAL,0.545138889,22.99644302,34.77000867,14.16626878,80.64341704,30.11606738
1B,"Alonso, Yonder",4300,CLE,MIN,0.590277778,7.42903187,12.50386653,3.622905872,5.846395387,5.85954536
3B,"Beltre, Adrian",4000,TEX,LAA,0.671527778,4.460434499,7.567532507,2.130110992,2.390282873,6.196194649
OF,"Gamel, Ben",3300,SEA,TB,0.673611111,2.41178208,4.594516706,0.77473111,0.811790069,1.384885562
OF,"Lagares, Juan",2500,NYM,CHC,0.548611111,0,0,0,0,0
SS,"Anderson, Tim",4200,CWS,MIL,0.590277778,10.77327311,16.99683894,6.105598734,17.98908815,10.74839049
3B,"Chapman, Matt",4400,OAK,KC,0.59375,10.06809782,16.77417406,5.038540646,13.51815449,8.604744277
OF,"Dietrich, Derek",3700,MIA,ARI,0.673611111,6.527730351,11.46939805,2.82147958,8.694757333,6.415561346
3B,"Longoria, Evan",4100,SF,PHI,0.670138889,3.699603673,6.03850703,1.945426156,3.068419431,2.876348723
OF,"Span, Denard",4100,SEA,TB,0.673611111,4.08168487,6.59987837,2.193039745,1.377243659,3.007013831
3B,"Lamb, Jake",4200,ARI,MIA,0.673611111,9.513064539,15.42075095,5.082299731,24.57425597,11.55490706
C,"Perez, Salvador",4200,KC,OAK,0.59375,10.13117647,15.94478074,5.770973262,14.73046974,11.40837698
OF,"Reddick, Josh",3100,HOU,BOS,0.8125,0,0,0,0,0
1B,"Santana, Carlos",4200,PHI,SF,0.670138889,10.07234325,16.23279368,5.452005424,10.79708869,8.329467848
SS,"Seager, Corey",2500,LAD,COL,0.631944444,0,0,0,0,0
OF,"McCutchen, Andrew",3800,SF,PHI,0.670138889,3.283532058,5.414531113,1.685282768,1.879976107,3.24904152
1B,"Alvarez, Pedro",3400,BAL,NYY,0.545138889,11.03717239,20.18446428,4.176703466,7.998990147,5.993532883
2B,"Villar, Jonathan",3500,MIL,CWS,0.590277778,4.28341843,7.724402323,1.70268051,4.362966428,5.34951716
C,"Hundley, Nick",3300,SF,PHI,0.670138889,2.646249933,4.931816995,0.932074636,2.164691542,1.95608484
OF,"O'Neill, Tyler",3600,STL,PIT,0.59375,5.200982055,10.0861301,1.53712102,6.208832177,3.188810028
1B,"Goldschmidt, Paul",5000,ARI,MIA,0.673611111,5.38523375,8.96174651,2.702849181,8.459368685,4.36361715
OF,"Myers, Wil",3800,SD,CIN,0.756944444,0,0,0,0,0
1B,"Gallo, Joey",4300,TEX,LAA,0.671527778,9.553585976,15.44927361,5.13182025,7.749107807,4.85729373
OF,"Refsnyder, Rob",2600,TB,SEA,0.673611111,2.309580171,5.135176732,0.19038275,3.783725977,4.164090951
C,"Gattis, Evan",3700,HOU,BOS,0.8125,5.354494611,9.407744327,2.314557324,1.053807359,3.79763991
C,"Barnhart, Tucker",3100,CIN,SD,0.756944444,3.996093109,7.156873737,1.625507639,2.495670356,3.934005625
OF,"Puig, Yasiel",4700,LAD,COL,0.631944444,9.926185536,16.60697265,4.9155952,8.875638939,9.057419985
2B,"Dozier, Brian",3900,MIN,CLE,0.590277778,7.158531725,11.44021202,3.947271506,5.898205877,6.018586625
C,"Molina, Yadier",3300,STL,PIT,0.59375,0,0,0,0,0
OF,"Allen, Greg",3600,CLE,MIN,0.590277778,5.049285125,9.277240549,1.878318558,3.296815309,4.582416508
1B,"Dozier, Hunter",3000,KC,OAK,0.59375,4.729672248,8.834117993,1.65133794,5.324775514,6.742206219
1B,"Healy, Ryon",4000,SEA,TB,0.673611111,7.289112596,11.87580343,3.849094468,9.76837258,5.550388628
1B,"Freese, David",3000,PIT,STL,0.59375,3.422885088,7.316862511,0.502402021,3.118974487,3.056913266
1B,"Guzman, Ronald",3800,TEX,LAA,0.671527778,9.209574148,15.9152447,4.180321233,5.310647411,5.174197061
1B,"Duda, Lucas",4000,KC,OAK,0.59375,0,0,0,0,0
SS,"Russell, Addison",3100,CHC,NYM,0.548611111,7.364202018,12.96368198,3.164592047,7.383557203,7.985325054
OF,"Pillar, Kevin",3600,TOR,DET,0.548611111,8.847204336,14.54433346,4.574357492,2.660268646,7.686459033
OF,"Smith, Mallex",3700,TB,SEA,0.673611111,4.512977678,7.946373509,1.937930805,6.109317341,6.377609071
1B,"Sandoval, Pablo",3000,SF,PHI,0.670138889,1.995763573,4.752482913,-0.071775933,0.898769758,1.858378765
C,"Alfaro, Jorge",3100,PHI,SF,0.670138889,5.585606213,10.57666528,1.842311912,5.402306668,5.647191649
2B,"Garcia, Greg",2900,STL,PIT,0.59375,1.834570132,4.706510661,-0.319385266,1.15975809,1.78989572
SS,"Urena, Richard",2700,TOR,DET,0.548611111,3.109643793,8.129782644,-0.655460345,3.020064558,3.027434052
1B,"Bell, Josh",3600,PIT,STL,0.59375,4.129655175,6.934829074,2.02577475,2.258100399,4.06132622
SS,"Rojas, Miguel",3300,MIA,ARI,0.673611111,5.6778929,10.25362794,2.246091621,14.44536705,8.070924388
3B,"Franco, Maikel",3600,PHI,SF,0.670138889,6.678568285,11.38332324,3.150002067,8.16852324,6.394059495
OF,"Santana, Domingo",3400,MIL,CWS,0.590277778,4.246414331,7.968122153,1.455133465,3.490703782,5.068159219
C,"Zunino, Mike",3400,SEA,TB,0.673611111,3.563337194,6.291028168,1.517568963,8.216616175,3.566614179
1B,"Choi, Ji-Man",3300,MIL,CWS,0.590277778,4.562013766,8.846995411,1.348277533,8.713024784,4.698583725
2B,"Frazier, Adam",3000,PIT,STL,0.59375,3.055367066,6.478096912,0.488319682,0.266872236,2.31005982
1B,"Miller, Brad",3300,TB,SEA,0.673611111,5.782066847,10.50007011,2.243564401,10.60654669,5.908856172
2B,"Hernandez, Enrique",3300,LAD,COL,0.631944444,7.559933982,14.95061525,2.016923028,7.170151558,5.953088911
1B,"Morrison, Logan",3100,MIN,CLE,0.590277778,5.599802171,10.10301234,2.222394545,2.797250661,4.690290954
1B,"Marte, Jefry",3500,LAA,TEX,0.671527778,2.80435825,6.377697138,0.124354084,7.578488368,4.974616285
C,"Lucroy, Jonathan",2900,OAK,KC,0.59375,6.230314493,11.73949448,2.098429504,5.462575714,6.672794728
2B,"Locastro, Tim",3600,LAD,COL,0.631944444,2.883148363,8.584341531,-1.392746512,1.589064025,2.867817986
2B,"Difo, Wilmer",3200,WSH,ATL,0.565972222,4.400176701,8.208717702,1.543770951,1.3863857,4.472809054
2B,"Harrison, Josh",3800,PIT,STL,0.59375,3.283502353,5.34507248,1.737324757,3.496967523,4.445505946
3B,"Seager, Kyle",3600,SEA,TB,0.673611111,3.757799656,6.310381183,1.84336351,1.758751069,2.335720671
C,"Chirinos, Robinson",3100,TEX,LAA,0.671527778,4.936725745,8.906089803,1.959702701,3.875123827,4.371629462
OF,"Chisenhall, Lonnie",3100,CLE,MIN,0.590277778,0,0,0,0,0
C,"Sisco, Chance",3200,BAL,NYY,0.545138889,5.041836107,10.53859171,0.919269401,2.839228152,4.153732083
C,"Gomes, Yan",3300,CLE,MIN,0.590277778,4.264350145,7.587974868,1.771631603,4.578975787,3.865544179
1B,"Zimmerman, Ryan",3600,WSH,ATL,0.565972222,0,0,0,0,0
SS,"Iglesias, Jose",3100,DET,TOR,0.548611111,5.940672867,10.28239776,2.684379196,4.701989391,6.812068724
OF,"Garcia, Leury",3200,CWS,MIL,0.590277778,0,0,0,0,0
2B,"Kiner-Falefa, Isiah",3400,TEX,LAA,0.671527778,4.506128262,7.83588425,2.008811271,2.342535343,4.826769888
C,"Leon, Sandy",2900,BOS,HOU,0.8125,3.981109941,7.542399171,1.310143018,1.949988319,3.150074902
SS,"Mercer, Jordy",2800,PIT,STL,0.59375,2.894183717,5.233094346,1.140000745,3.153480702,3.342005447
OF,"Altherr, Aaron",3400,PHI,SF,0.670138889,4.667556194,8.886232814,1.503548729,5.305535928,4.863724657
OF,"Grossman, Robbie",3000,MIN,CLE,0.590277778,3.128713094,6.369947684,0.697787152,1.629881035,3.388755891
OF,"Jones, JaCoby",3200,DET,TOR,0.548611111,8.28108697,14.88758029,3.326216982,6.180317097,6.918857318
OF,"Inciarte, Ender",4100,ATL,WSH,0.565972222,4.587687871,7.251663033,2.589706498,3.588897899,4.971883659
3B,"Devers, Rafael",3300,BOS,HOU,0.8125,4.908771231,8.394300041,2.294624623,1.73929325,2.932789735
OF,"Maybin, Cameron",3200,MIA,ARI,0.673611111,2.560809719,5.884720065,0.06787696,5.529584168,4.306583789
2B,"Kinsler, Ian",3500,LAA,TEX,0.671527778,8.300295856,14.1087628,3.943945647,12.24683067,10.40120234
OF,"Piscotty, Stephen",3000,OAK,KC,0.59375,6.623480072,12.11283037,2.506467346,7.186314924,6.22192049
OF,"LaMarre, Ryan",2900,MIN,CLE,0.590277778,1.394439358,3.726890197,-0.354898771,0.223871038,2.16564008
OF,"Bruce, Jay",3400,NYM,CHC,0.548611111,2.005902113,3.782714873,0.673292544,0.738962051,1.818844129
SS,"Ahmed, Nick",3400,ARI,MIA,0.673611111,5.128577327,9.14286079,2.117864729,7.4019476,3.320911502
SS,"Peraza, Jose",3300,CIN,SD,0.756944444,3.893769301,6.673330134,1.809098676,1.125472222,3.314652755
OF,"Blanco, Gregor",2800,SF,PHI,0.670138889,2.402578924,4.97813796,0.470909647,1.096070226,2.240442072
SS,"Galvis, Freddy",2700,SD,CIN,0.756944444,4.187887497,7.721038251,1.538024431,6.987922809,6.28990799
OF,"Duvall, Adam",3200,CIN,SD,0.756944444,4.313565001,7.810499049,1.690864464,2.827757495,2.513070144
3B,"Culberson, Charlie",2700,ATL,WSH,0.565972222,1.679203302,3.942188732,-0.018035771,0.193100036,0.704247395
2B,"Bote, David",2900,CHC,NYM,0.548611111,4.641792016,9.001707309,1.371855546,6.213884774,5.288981529
2B,"Marte, Ketel",2900,ARI,MIA,0.673611111,4.481167602,8.244221017,1.65887754,8.191528567,5.112042904
1B,"McMahon, Ryan",3400,COL,LAD,0.631944444,2.374228195,6.808989086,-0.951842474,0.420050885,2.454038132
1B,"Caratini, Victor",2900,CHC,NYM,0.548611111,2.267514588,5.450001043,-0.119350253,1.336891986,3.113303249
C,"Pina, Manny",2800,MIL,CWS,0.590277778,3.341643557,6.431574614,1.024195264,3.958503327,3.612970373
2B,"Perez, Hernan",3000,MIL,CWS,0.590277778,2.193953429,4.725699766,0.295143677,2.580171623,3.133623838
SS,"Adrianza, Ehire",2500,MIN,CLE,0.590277778,2.543075336,5.282991599,0.488138138,1.615663199,2.674985972
OF,"Dyson, Jarrod",3400,ARI,MIA,0.673611111,4.19523873,7.889438103,1.424589201,9.681902099,6.808992877
OF,"Tilson, Charlie",2800,CWS,MIL,0.590277778,4.473433068,9.015898022,1.066584352,0,3.804265503
OF,"Fowler, Dexter",3300,STL,PIT,0.59375,4.988703486,8.759777677,2.160397842,3.106711606,3.616536273
1B,"Walker, Neil",3700,NYY,BAL,0.545138889,8.852100215,16.07365685,3.435932742,17.01397237,14.73637384
OF,"DeShields, Delino",3700,TEX,LAA,0.671527778,5.749573017,9.760758521,2.741183889,2.055832899,6.668401175
OF,"Ervin, Phillip",3500,CIN,SD,0.756944444,1.097851156,2.545125853,0.012395133,0.211273645,1.502835469
OF,"Almonte, Abraham",3100,KC,OAK,0.59375,4.881492671,9.619387926,1.32807123,5.282741569,5.910656636
3B,"Farmer, Kyle",2500,LAD,COL,0.631944444,2.45192714,7.120234849,-1.049303641,0.888674942,2.814899099
2B,"Odor, Rougned",3200,TEX,LAA,0.671527778,3.697921868,7.150360451,1.108592931,2.000836293,3.210659026
2B,"Rivera, Yadiel",2600,MIA,ARI,0.673611111,0.489161163,2.093612225,-0.714177133,0.613767577,1.279762785
2B,"Machado, Dixon",2700,DET,TOR,0.548611111,4.047573437,7.939160427,1.128883194,2.82826341,4.465206556
OF,"Margot, Manuel",3200,SD,CIN,0.756944444,4.040589271,7.518281903,1.432319797,3.62650554,4.946285367
OF,"Gentry, Craig",2500,BAL,NYY,0.545138889,3.519240893,8.489096744,-0.208150995,1.199983195,5.83623605
C,"Mathis, Jeff",2500,ARI,MIA,0.673611111,1.119244849,2.771252764,-0.119761088,0.356843204,1.603715483
P,"Young, Chris",4000,SD,CIN,0.756944444,1.841663592,5.107153378,-0.607453748,2.056473144,2.078455934
C,"Bandy, Jett",2800,MIL,CWS,0.590277778,1.459403215,3.990073482,-0.438599485,1.228709514,1.710133
2B,"Lin, Tzu-Wei",2600,BOS,HOU,0.8125,1.645555699,4.492765072,-0.489851331,0.256959323,1.388414287
C,"Narvaez, Omar",2900,CWS,MIL,0.590277778,0.715241047,1.89644093,-0.170658865,0.756283697,1.216500527
C,"Wolters, Tony",3300,COL,LAD,0.631944444,1.606548794,3.417336515,0.248458003,0.891505525,2.876816234
2B,"Forsythe, Logan",2800,LAD,COL,0.631944444,3.973969051,8.317997234,0.715947914,2.748209693,4.178354503
2B,"Owings, Chris",3100,ARI,MIA,0.673611111,3.3379751,6.80619828,0.736807715,2.900716098,2.554982126
OF,"Davis, Rajai",2800,CLE,MIN,0.590277778,1.80357279,4.088310354,0.090019617,0.55011319,2.368827326
C,"Hedges, Austin",2800,SD,CIN,0.756944444,0,0,0,0,0
C,"Lobaton, Jose",2400,NYM,CHC,0.548611111,1.936340073,5.021726652,-0.377699861,0.709984326,1.69250743
3B,"Nunez, Renato",2800,BAL,NYY,0.545138889,2.744571614,6.641405049,-0.178053462,2.818758093,3.93368384
2B,"Beckham, Gordon",2800,SEA,TB,0.673611111,2.216903125,5.504713364,-0.248954555,0.5590447,2.188260541
3B,"Beckham, Tim",2700,BAL,NYY,0.545138889,0,0,0,0,0
2B,"Guillorme, Luis",2700,NYM,CHC,0.548611111,1.79017609,4.804124834,-0.470285468,0.137032184,1.339723997
C,"Telis, Tomas",2800,MIA,ARI,0.673611111,0.820585505,3.775145419,-1.395334431,0.593058928,1.39362287
OF,"Pompey, Dalton",3400,TOR,DET,0.548611111,1.710304086,6.730442937,-2.054800052,0,1.665088729
C,"Wilson, Bobby",2700,MIN,CLE,0.590277778,3.879799559,7.585761053,1.100328439,3.796499862,2.646369727
C,"Maxwell, Bruce",2500,OAK,KC,0.59375,5.597176717,12.07875906,0.735989961,6.212970763,5.444628816
C,"Avila, Alex",2900,ARI,MIA,0.673611111,1.858026536,5.256566722,-0.690878604,3.309346098,2.962028304
2B,"Sardinas, Luis",2700,BAL,NYY,0.545138889,0,0,0,0,0
3B,"Prado, Martin",2800,MIA,ARI,0.673611111,0,0,0,0,0
OF,"Suzuki, Ichiro",2400,SEA,TB,0.673611111,1.659095156,4.377139124,-0.379437819,0,0.956316375
OF,"Shuck, J.B.",2500,MIA,ARI,0.673611111,1.05461026,3.531030673,-0.80270505,0.656418861,1.376771374
C,"Perez, Roberto",2700,CLE,MIN,0.590277778,1.856041085,4.085883612,0.183659191,1.458922594,1.78839096
SS,"Urshela, Giovanny",2800,TOR,DET,0.548611111,3.302488537,8.62010364,-0.685722791,0.879149099,2.790498673
C,"Stewart, Chris",2800,ATL,WSH,0.565972222,2.697763156,5.231702376,0.797308741,0,1.097548976
OF,"Cabrera, Melky",3400,CLE,MIN,0.590277778,1.875526004,3.783961874,0.444199102,1.802027719,1.94964048
OF,"Marisnick, Jake",2700,HOU,BOS,0.8125,1.933902486,4.503243906,0.006896421,0.387003871,1.394720233
2B,"Pennington, Cliff",2500,TEX,LAA,0.671527778,1.385555898,5.723612069,-1.86798623,0,1.187038317
OF,"Thompson, Trayce",2700,CWS,MIL,0.590277778,2.503269556,6.00100636,-0.120033047,4.708080195,2.334692395
C,"Centeno, Juan",2500,TEX,LAA,0.671527778,4.058255167,8.706809081,0.571839731,1.76126628,2.82607111
C,"Cruz, Tony",2300,CIN,SD,0.756944444,2.588422353,6.361033399,-0.241035931,1.131861569,1.73350721
OF,"Sierra, Moises",2500,WSH,ATL,0.565972222,1.177473611,3.665907318,-0.688851668,0.324677241,1.419616542
2B,"Romine, Andrew",2600,SEA,TB,0.673611111,0.9055287,3.901748129,-1.341635871,0.095789004,0.707891767
1B,"Headley, Chase",2400,SD,CIN,0.756944444,0.794401697,3.083759266,-0.922616481,0.377362005,1.45224002
C,"Montero, Miguel",2400,WSH,ATL,0.565972222,1.067902545,6.083168872,-2.693547199,0,0.878555998
